{
  "comment": "",
  "countries": {
    "belgium": {
      "active": 1,
      "covid19id": "Belgium",
      "url": "https://www.worldometers.info/coronavirus/country/belgium/",
      "label": "Belgien",
      "population": 11.6
    },
    "brazil": {
      "active": 1,
      "covid19id": "Brazil",
      "url": "https://www.worldometers.info/coronavirus/country/brazil/",
      "label": "Brasilien",
      "population": 212.5
    },
    "canada": {
      "active": 1,
      "covid19id": "Canada",
      "url": "https://www.worldometers.info/coronavirus/country/canada/",
      "label": "Kanada",
      "population": 37.7
    },
    "chile": {
      "active": 1,
      "covid19id": "Chile",
      "url": "https://www.worldometers.info/coronavirus/country/chile/",
      "label": "Chile",
      "population": 19.1
    },
    "france": {
      "active": 1,
      "covid19id": "France",
      "url": "https://www.worldometers.info/coronavirus/country/france/",
      "label": "Frankreich",
      "population": 65.3
    },
    "germany": {
      "active": 1,
      "covid19id": "Germany",
      "url": "https://www.worldometers.info/coronavirus/country/germany/",
      "label": "Deutschland",
      "population": 83.8
    },
    "india": {
      "active": 1,
      "covid19id": "India",
      "url": "https://www.worldometers.info/coronavirus/country/india/",
      "label": "Indien",
      "population": 1379.9
    },
    "iran": {
      "active": 1,
      "covid19id": "Iran",
      "url": "https://www.worldometers.info/coronavirus/country/iran/",
      "label": "Iran",
      "population": 84.0
    },
    "italy": {
      "active": 1,
      "covid19id": "Italy",
      "url": "https://www.worldometers.info/coronavirus/country/italy/",
      "label": "Italien",
      "population": 60.5
    },
    "mexico": {
      "active": 1,
      "covid19id": "Mexico",
      "url": "https://www.worldometers.info/coronavirus/country/mexico/",
      "label": "Mexiko",
      "population": 128.9
    },
    "pakistan": {
      "active": 1,
      "covid19id": "Pakistan",
      "url": "https://www.worldometers.info/coronavirus/country/pakistan/",
      "label": "Pakistan",
      "population": 220.8
    },
    "peru": {
      "active": 1,
      "covid19id": "Peru",
      "url": "https://www.worldometers.info/coronavirus/country/peru/",
      "label": "Peru",
      "population": 33.0
    },
    "russia": {
      "active": 1,
      "covid19id": "Russia",
      "url": "https://www.worldometers.info/coronavirus/country/russia/",
      "label": "Russland",
      "population": 145.9
    },
    "saudi-arabia": {
      "active": 1,
      "covid19id": "Saudi Arabia",
      "url": "https://www.worldometers.info/coronavirus/country/saudi-arabia/",
      "label": "Saudi Arabien",
      "population": 34.8
    },
    "spain": {
      "active": 1,
      "covid19id": "Spain",
      "url": "https://www.worldometers.info/coronavirus/country/spain/",
      "label": "Spanien",
      "population": 46.8
    },
    "sweden": {
      "active": 1,
      "covid19id": "Sweden",
      "url": "https://www.worldometers.info/coronavirus/country/sweden/",
      "label": "Schweden",
      "population": 10.1
    },
    "turkey": {
      "active": 1,
      "covid19id": "Turkey",
      "url": "https://www.worldometers.info/coronavirus/country/turkey/",
      "label": "Türkei",
      "population": 84.3
    },
    "uk": {
      "active": 1,
      "covid19id": "United Kingdom",
      "url": "https://www.worldometers.info/coronavirus/country/uk/",
      "label": "UK",
      "population": 67.9
    },
    "us": {
      "active": 1,
      "covid19id": "US",
      "url": "https://www.worldometers.info/coronavirus/country/us/",
      "label": "USA",
      "population": 331.0
    }
  }
}